variable;variable_associee
prix_total_des_maisons_en_euros;nombre_de_maisons_terrain_achete_ou_non
surface_totale_des_maisons_en_m2;nombre_de_maisons_terrain_achete_ou_non
prix_total_des_terrains_en_euros;nombre_de_terrains_achetes
superficie_totale_des_terrains_achetes_en_m2;nombre_de_terrains_achetes
